{
  "version": 2,
  "routes": [
    { "handle": "filesystem" },
    { "src": "/sitemaps/communities/(.*)", "dest": "/api/sitemaps/communities.ts" },
    { "src": "/sitemaps/chat/(.*)", "dest": "/api/sitemaps/chat.ts" },
    { "src": "/forums/(.*)/p/(.*)", "status": 301, "headers": { "Location": "https://mazmo.net/+$1" } },
    { "src": "/forums/(.*)/(.*)/(.*)", "dest": "/api/redirects/thread.ts?communitySlug=$1&threadSlug=$2" },
    { "src": "/forums/(.*)/(.*)", "dest": "/api/redirects/thread.ts?communitySlug=$1&threadSlug=$2" },
    { "src": "/forums/(.*)", "status": 301, "headers": { "Location": "https://mazmo.net/+$1" } },
    { "src": "/foro/(.*)/p/(.*)", "status": 301, "headers": { "Location": "https://mazmo.net/+$1" } },
    { "src": "/foro/(.*)/(.*)/(.*)", "dest": "/api/redirects/thread.ts?communitySlug=$1&threadSlug=$2" },
    { "src": "/foro/(.*)/(.*)", "dest": "/api/redirects/thread.ts?communitySlug=$1&threadSlug=$2" },
    { "src": "/foro/(.*)", "status": 301, "headers": { "Location": "https://mazmo.net/+$1" } },
    { "src": "/forums", "status": 301, "headers": { "Location": "https://mazmo.net/communities" } },
    { "src": "/foro", "status": 301, "headers": { "Location": "https://mazmo.net/communities" } },
    { "src": "/mazmorra", "status": 301, "headers": { "Location": "https://mazmo.net/info/about" } },
    { "src": "/(.*)/wall", "status": 301, "headers": { "Location": "https://mazmo.net/@$1" } },
    { "src": "/chat/channels/(.*)", "dest": "/api/channel.ts?channelId=$1" },
    { "src": "/@(.*)", "dest": "/api/profile.ts?username=$1" },
    { "src": "/\\+(.*)/(.*)", "dest": "/api/thread.ts?communitySlug=$1&threadSlug=$2" },
    { "src": "/\\+(.*)", "dest": "/api/community.ts?communitySlug=$1" },
    { "src": "/.*", "dest": "/index.html" }
  ]
}
